^F:\PROGRAM FILES (X86)\GOOGLE DRIVE\PROJECT\VISION OPENCV\FACE RECOGNITION\FACE RECOGNITION\SOURCE.CPP
F:\PROGRAM FILES (X86)\GOOGLE DRIVE\PROJECT\VISION OPENCV\FACE RECOGNITION\FACE RECOGNITION\DEBUG\VC140.PDB
F:\PROGRAM FILES (X86)\GOOGLE DRIVE\PROJECT\VISION OPENCV\FACE RECOGNITION\FACE RECOGNITION\DEBUG\VC140.IDB
